<?xml version="1.0" standalone="no"?>
<!DOCTYPE svg PUBLIC "-//W3C//DTD SVG 20010904//EN"
 "http://www.w3.org/TR/2001/REC-SVG-20010904/DTD/svg10.dtd">
<svg version="1.0" xmlns="http://www.w3.org/2000/svg"
 width="261.000000pt" height="261.000000pt" viewBox="0 0 261.000000 261.000000"
 preserveAspectRatio="xMidYMid meet">
<metadata>
Created by potrace 1.11, written by Peter Selinger 2001-2013
</metadata>
<g transform="translate(0.000000,261.000000) scale(0.100000,-0.100000)"
fill="#000000" stroke="none">
<path d="M1059 2359 c-465 -36 -840 -375 -923 -834 -22 -121 -14 -305 18 -429
83 -321 332 -594 637 -699 75 -26 91 -30 189 -47 100 -18 343 -8 380 15 4 3
40 -28 80 -67 l72 -72 149 -1 c83 0 155 3 161 6 7 5 -99 118 -280 299 -161
161 -292 295 -292 299 0 4 24 15 54 24 116 37 239 144 297 259 40 80 58 164
54 256 -4 99 -10 123 -46 201 -134 288 -490 394 -758 224 -153 -96 -241 -257
-243 -444 0 -77 6 -111 34 -187 31 -85 68 -133 220 -286 121 -121 134 -138
106 -132 -17 3 -63 22 -102 40 -217 105 -356 332 -351 572 6 268 176 497 435
585 90 30 238 34 339 8 275 -70 470 -317 472 -597 1 -76 -8 -123 -36 -206 -44
-126 -110 -215 -248 -332 l-48 -41 282 -281 281 -282 259 0 c200 0 259 3 259
12 0 7 -122 135 -271 284 l-272 272 20 28 c50 71 123 248 138 336 55 308 -6
576 -182 813 -168 225 -438 379 -701 401 -42 3 -79 7 -82 8 -3 1 -48 -1 -101
-5z m238 -770 c137 -95 167 -283 66 -415 -61 -81 -188 -132 -278 -112 -97 22
-175 81 -217 168 -30 61 -31 176 -1 240 74 163 282 220 430 119z"/>
</g>
</svg>
